{
    "accessors" : [
        {
            "bufferView" : 0,
            "componentType" : 5123,
            "count" : 6000,
            "max" : [
                1438
            ],
            "min" : [
                0
            ],
            "type" : "SCALAR"
        },
        {
            "bufferView" : 1,
            "componentType" : 5126,
            "count" : 1439,
            "max" : [
                0.7809362411499023,
                0.8053542375564575,
                0.5351989269256592
            ],
            "min" : [
                -0.7110246419906616,
                -0.7073410749435425,
                -1.782607078552246
            ],
            "type" : "VEC3"
        },
        {
            "bufferView" : 2,
            "componentType" : 5126,
            "count" : 1439,
            "max" : [
                0.99945068359375,
                0.999114990234375,
                0.9983519911766052
            ],
            "min" : [
                -0.9998779296875,
                -0.999908447265625,
                -0.99993896484375
            ],
            "type" : "VEC3"
        },
        {
            "bufferView" : 3,
            "componentType" : 5126,
            "count" : 1439,
            "max" : [
                0.9996931552886963,
                0.9958604574203491,
                0.9999358057975769,
                1.0
            ],
            "min" : [
                -0.9986278414726257,
                -0.9998749494552612,
                -0.9997866749763489,
                1.0
            ],
            "type" : "VEC4"
        },
        {
            "bufferView" : 4,
            "componentType" : 5126,
            "count" : 1439,
            "max" : [
                0.9947530031204224,
                0.9960940000601113
            ],
            "min" : [
                0.0039059999398887157,
                0.003934025764465332
            ],
            "type" : "VEC2"
        }
    ],
    "asset" : {
        "generator" : "Khronos Blender glTF 2.0 exporter",
        "version" : "2.0"
    },
    "bufferViews" : [
        {
            "buffer" : 0,
            "byteLength" : 12000,
            "byteOffset" : 0,
            "target" : 34963
        },
        {
            "buffer" : 0,
            "byteLength" : 17268,
            "byteOffset" : 12000,
            "target" : 34962
        },
        {
            "buffer" : 0,
            "byteLength" : 17268,
            "byteOffset" : 29268,
            "target" : 34962
        },
        {
            "buffer" : 0,
            "byteLength" : 23024,
            "byteOffset" : 46536,
            "target" : 34962
        },
        {
            "buffer" : 0,
            "byteLength" : 11512,
            "byteOffset" : 69560,
            "target" : 34962
        }
    ],
    "buffers" : [
        {
            "byteLength" : 81072,
            "uri" : "model.bin"
        }
    ],
    "images" : [
        {
            "uri" : "model.jpg"
        }
    ],
    "materials" : [
        {
            "name" : "model",
            "pbrMetallicRoughness" : {
                "baseColorTexture" : {
                    "index" : 0
                },
                "metallicFactor" : 0.0
            }
        }
    ],
    "meshes" : [
        {
            "name" : "model",
            "primitives" : [
                {
                    "attributes" : {
                        "NORMAL" : 2,
                        "POSITION" : 1,
                        "TANGENT" : 3,
                        "TEXCOORD_0" : 4
                    },
                    "indices" : 0,
                    "material" : 0
                }
            ]
        }
    ],
    "nodes" : [
        {
            "mesh" : 0,
            "name" : "model",
            "rotation" : [
                0.7071068286895752,
                0.0,
                -0.0,
                0.7071067094802856
            ]
        }
    ],
    "samplers" : [
        {}
    ],
    "scene" : 0,
    "scenes" : [
        {
            "name" : "Scene",
            "nodes" : [
                0
            ]
        }
    ],
    "textures" : [
        {
            "sampler" : 0,
            "source" : 0
        }
    ]
}
